{
  "activity": "Bot de l'antique !",
  "prefix": "!",
  "defaultCooldown": 1,
  "initMsg": "***************************************\n**           Antique bot on          **\n***************************************"
}